<?xml version="1.0" encoding="utf-8"?>
<!-- Generator: Adobe Illustrator 23.0.1, SVG Export Plug-In . SVG Version: 6.00 Build 0)  -->
<svg version="1.1" id="Шар_1" xmlns="http://www.w3.org/2000/svg" xmlns:xlink="http://www.w3.org/1999/xlink" x="0px" y="0px"
	 viewBox="0 0 139 89" style="enable-background:new 0 0 139 89;" xml:space="preserve">
<style type="text/css">
	.st0{opacity:0.2;}
	.st1{fill:#3D9824;}
	.st2{fill-rule:evenodd;clip-rule:evenodd;fill:#3D9824;}
</style>
<title>ic_cover@2x</title>
<desc>Created with Sketch.</desc>
<g id="Styles" class="st0">
	<g id="ic_cover">
		<path id="Shape" class="st1" d="M138.3,46.7L122.5,4c-0.6-1.5-1.7-2.8-3.2-3.5c-1.5-0.7-3.2-0.8-4.7-0.2L37.4,28.8
			c-1.6,0.6-2.8,1.7-3.5,3.2c-0.7,1.5-0.8,3.2-0.2,4.7l15.8,42.6c0.6,1.5,1.7,2.8,3.2,3.5c0.8,0.4,1.7,0.6,2.6,0.6
			c0.7,0,1.5-0.1,2.2-0.4l77.1-28.5h0C137.8,53.4,139.5,49.9,138.3,46.7z M110.2,8.5L86.3,42.7L45.9,32.3L110.2,8.5z M54.2,74.3
			l-13.7-37l31.8,8.2L54.2,74.3z M60.9,75.2l17.6-28.2l8.3,2.1c0.3,0.1,0.5,0.1,0.8,0.1c1,0,2-0.5,2.5-1.3l4.9-7l31.8,9.9L60.9,75.2
			z M98.8,35.6l18.8-26.8l13.7,37L98.8,35.6z"/>
		<path id="Path" class="st2" d="M36.6,80.3c-0.6-1.6-2.4-2.4-4-1.8l-11.7,4.3c-1.6,0.6-2.4,2.4-1.8,4c0.5,1.2,1.6,2,2.9,2
			c0.4,0,0.7-0.1,1.1-0.2l11.7-4.3C36.4,83.7,37.2,81.9,36.6,80.3z"/>
		<path class="st2" d="M20.4,51.5c-0.6-1.6-2.4-2.4-4-1.8l-7.2,2.7c-1.6,0.6-2.4,2.4-1.8,4c0.5,1.2,1.6,2,2.9,2
			c0.4,0,0.7-0.1,1.1-0.2l7.2-2.7C20.2,54.9,21,53.1,20.4,51.5z"/>
		<path class="st2" d="M11.4,74.9c-0.6-1.6-2.4-2.4-4-1.8l-5.4,2c-1.6,0.6-2.4,2.4-1.8,4c0.5,1.2,1.6,2,2.9,2c0.4,0,0.7-0.1,1.1-0.2
			l5.4-2C11.1,78.3,12,76.5,11.4,74.9z"/>
	</g>
</g>
</svg>
