<?xml version="1.0" encoding="UTF-8"?>
<svg width="8px" height="16px" viewBox="0 0 8 16" version="1.1" xmlns="http://www.w3.org/2000/svg" xmlns:xlink="http://www.w3.org/1999/xlink">
    <!-- Generator: sketchtool 52.6 (67491) - http://www.bohemiancoding.com/sketch -->
    <title>51DE9F10-D93A-405E-88FB-DE78161774B2@2x</title>
    <desc>Created with sketchtool.</desc>
    <g id="Home" stroke="none" stroke-width="1" fill="none" fill-rule="evenodd">
        <g transform="translate(-1013.000000, -388.000000)" id="Hero-Images">
            <g transform="translate(280.000000, 168.000000)">
                <g id="1">
                    <g id="Right" transform="translate(714.000000, 206.000000)">
                        <g id="Icons-/-ic_left_g" transform="translate(10.000000, 10.000000)">
                            <g id="ic_righ_w">
                                <rect id="Rectangle" x="0" y="0" width="24" height="24"></rect>
                                <polygon id="Path-4" stroke="#FFFFFF" stroke-width="2" stroke-linecap="round" stroke-linejoin="round" points="10 5 16 12 10 19 16 12"></polygon>
                            </g>
                        </g>
                    </g>
                </g>
            </g>
        </g>
    </g>
</svg>