<?xml version="1.0" encoding="UTF-8"?>
<svg width="22px" height="21px" viewBox="0 0 22 21" version="1.1" xmlns="http://www.w3.org/2000/svg" xmlns:xlink="http://www.w3.org/1999/xlink">
    <!-- Generator: Sketch 52.6 (67491) - http://www.bohemiancoding.com/sketch -->
    <title>ic_cart_add@2x</title>
    <desc>Created with Sketch.</desc>
    <g id="Styles" stroke="none" stroke-width="1" fill="none" fill-rule="evenodd">
        <g id="Плитка-/-Item-2" transform="translate(-208.000000, -307.000000)">
            <g id="Icons-/-ic_cart_add_w" transform="translate(207.000000, 305.000000)">
                <g id="ic_cart_add">
                    <rect id="Rectangle" x="0" y="0" width="24" height="24"></rect>
                    <polyline id="Path-2" stroke="#FFFFFF" stroke-width="1.8" stroke-linecap="round" stroke-linejoin="round" points="2.2 3.15775862 4.72 3.15775862 7.45 14.9586207 19.56 14.9586207 21.66 6.7887931"></polyline>
                    <ellipse id="Oval" stroke="#FFFFFF" stroke-width="1.8" stroke-linecap="round" stroke-linejoin="round" cx="8.85" cy="19.7068966" rx="2.1" ry="2.09482759"></ellipse>
                    <ellipse id="Oval-Copy" stroke="#FFFFFF" stroke-width="1.8" stroke-linecap="round" stroke-linejoin="round" cx="17.95" cy="19.7068966" rx="2.1" ry="2.09482759"></ellipse>
                    <polygon id="Path-3" stroke="#FFFFFF" stroke-width="1.5" stroke-linecap="round" stroke-linejoin="round" points="16.5 8.25 13.5 11.25 10.5 8.25 13.5 11.25"></polygon>
                    <path d="M13.5,11.25 L13.5,3.75 L13.5,11.25 Z" id="Path-3-Copy" stroke="#FFFFFF" stroke-width="1.5" stroke-linecap="round" stroke-linejoin="round"></path>
                </g>
            </g>
        </g>
    </g>
</svg>
