<?xml version="1.0" encoding="UTF-8"?>
<svg width="21px" height="21px" viewBox="0 0 21 21" version="1.1" xmlns="http://www.w3.org/2000/svg" xmlns:xlink="http://www.w3.org/1999/xlink">
    <!-- Generator: sketchtool 52.6 (67491) - http://www.bohemiancoding.com/sketch -->
    <title>5FD9BC7B-94DB-4EE7-99DA-5E18DA30EE01@2x</title>
    <desc>Created with sketchtool.</desc>
    <g id="Style-Guide" stroke="none" stroke-width="1" fill="none" fill-rule="evenodd" stroke-linecap="round" stroke-linejoin="round">
        <g id="Tiles" transform="translate(-717.000000, -540.000000)" stroke="#959991">
            <g id="Организмы-/-Детальная-/-Верх-1440-Copy-7" transform="translate(653.000000, 531.000000)">
                <g id="ic_cart_add" transform="translate(63.000000, 7.000000)">
                    <g id="ic_constructor_g" transform="translate(2.550000, 2.550000)">
                        <path d="M11.1428572,10.3125 L11.1428572,13.125" id="Path" stroke-width="1.6"></path>
                        <path d="M0,4.6875 L3.71428585,0.9375" id="Path" stroke-width="1.6"></path>
                        <path d="M14.8571434,4.6875 L18.5714293,0.9375" id="Path" stroke-width="1.6"></path>
                        <path d="M14.8571434,18.75 L18.5714293,15" id="Path" stroke-width="1.6"></path>
                        <polygon id="Rectangle" stroke-width="1.8" points="-2.72848411e-12 4.6875 14.8571434 4.6875 14.8571434 18.75 7.5520555e-13 18.75"></polygon>
                        <path d="M3.71428585,0.9375 L6.68571442,0.9375" id="Path-5" stroke-width="1.6"></path>
                        <path d="M18.5714282,0.9375 L18.5714282,3.9375" id="Path-6" stroke-width="1.6"></path>
                        <path d="M18.5714282,6.9375 L18.5714282,9.1875" id="Path-12" stroke-width="1.6"></path>
                        <path d="M18.5714282,15.0363922 L18.5714282,12.0363922" id="Path-2" stroke-width="1.6"></path>
                        <path d="M10.0285714,0.9375 L12.0714285,0.9375" id="Path-5-Copy" stroke-width="1.6"></path>
                        <path d="M15.5999994,0.9375 L18.571428,0.9375" id="Path-5-Copy-2" stroke-width="1.6"></path>
                    </g>
                </g>
            </g>
        </g>
    </g>
</svg>