<?xml version="1.0" encoding="UTF-8"?>
<svg width="20px" height="20px" viewBox="0 0 20 20" version="1.1" xmlns="http://www.w3.org/2000/svg" xmlns:xlink="http://www.w3.org/1999/xlink">
    <!-- Generator: sketchtool 52.6 (67491) - http://www.bohemiancoding.com/sketch -->
    <title>6583C6CD-6854-41CE-8E4C-FC43148E26DC@2x</title>
    <desc>Created with sketchtool.</desc>
    <g id="Home" stroke="none" stroke-width="1" fill="none" fill-rule="evenodd">
        <g id="Offer-Page-5" transform="translate(-1336.000000, -797.000000)" fill="#959991">
            <g id="Режим-отображения" transform="translate(1328.000000, 789.000000)">
                <path d="M8,8 L14,8 L14,14 L8,14 L8,8 Z M8,15 L14,15 L14,21 L8,21 L8,15 Z M15,8 L21,8 L21,14 L15,14 L15,8 Z M15,15 L21,15 L21,21 L15,21 L15,15 Z M22,8 L28,8 L28,14 L22,14 L22,8 Z M22,15 L28,15 L28,21 L22,21 L22,15 Z M8,22 L14,22 L14,28 L8,28 L8,22 Z M15,22 L21,22 L21,28 L15,28 L15,22 Z M22,22 L28,22 L28,28 L22,28 L22,22 Z" id="ic_view_large"></path>
            </g>
        </g>
    </g>
</svg>