<?xml version="1.0" encoding="UTF-8"?>
<svg width="32px" height="30px" viewBox="0 0 32 30" version="1.1" xmlns="http://www.w3.org/2000/svg" xmlns:xlink="http://www.w3.org/1999/xlink">
    <!-- Generator: Sketch 52.6 (67491) - http://www.bohemiancoding.com/sketch -->
    <title>ic_next-page@2x</title>
    <desc>Created with Sketch.</desc>
    <g id="Styles" stroke="none" stroke-width="1" fill="none" fill-rule="evenodd" stroke-linecap="round" stroke-linejoin="round">
        <g id="Плитка-/-Show-More" transform="translate(-122.000000, -121.000000)" stroke="#FFFFFF" stroke-width="3">
            <g id="ic_next-page" transform="translate(124.000000, 123.000000)">
                <polyline id="Path-10" points="15 0 28 13 15 26"></polyline>
                <path d="M27,13.5 L1.77635684e-15,13.5" id="Path-11"></path>
            </g>
        </g>
    </g>
</svg>