<?xml version="1.0" encoding="UTF-8"?>
<svg width="32px" height="32px" viewBox="0 0 32 32" version="1.1" xmlns="http://www.w3.org/2000/svg" xmlns:xlink="http://www.w3.org/1999/xlink">
    <!-- Generator: Sketch 52.6 (67491) - http://www.bohemiancoding.com/sketch -->
    <title>icons_personal@2x</title>
    <desc>Created with Sketch.</desc>
    <g id="Styles" stroke="none" stroke-width="1" fill="none" fill-rule="evenodd" stroke-linecap="round" stroke-linejoin="round">
        <g id="Иконки-/-Личный-кабинет-/-3">
            <g id="icons_personal">
                <rect id="Rectangle" stroke="#FFFFFF" stroke-width="0.01" x="0.005" y="0.005" width="31.99" height="31.99"></rect>
                <circle id="Oval" stroke="#2E332D" stroke-width="1.8" cx="16" cy="11" r="5"></circle>
                <path d="M25,26.5 L7,26.5 L7,24 C8.8,20.6666667 11.8,19 16,19 C20.2,19 23.2,20.6666667 25,24 L25,26.5 Z" id="Path" stroke="#2E332D" stroke-width="1.8"></path>
            </g>
        </g>
    </g>
</svg>