<?xml version="1.0" encoding="UTF-8"?>
<svg width="15px" height="15px" viewBox="0 0 15 15" version="1.1" xmlns="http://www.w3.org/2000/svg" xmlns:xlink="http://www.w3.org/1999/xlink">
    <!-- Generator: sketchtool 52.6 (67491) - http://www.bohemiancoding.com/sketch -->
    <title>5F6E43DD-D09D-4830-8CDF-709925CA4BEB@2x</title>
    <desc>Created with sketchtool.</desc>
    <g id="Items-Details" stroke="none" stroke-width="1" fill="none" fill-rule="evenodd">
        <g id="Items-Details-13" transform="translate(-407.000000, -1390.000000)" fill="#999E98">
            <g id="Компоненты-/-Детальная-/-Табы-/-Отзывы" transform="translate(64.000000, 739.000000)">
                <g id="2" transform="translate(64.000000, 509.000000)">
                    <path d="M288,148 L294,148 L294,151 L288,151 L288,157 L285,157 L285,151 L279,151 L279,148 L285,148 L285,142 L288,142 L288,148 Z" id="Combined-Shape-Copy-6"></path>
                </g>
            </g>
        </g>
    </g>
</svg>